%YAML 1.1
%TAG !u! tag:unity3d.com,2011:
--- !u!114 &11400000
MonoBehaviour:
  m_ObjectHideFlags: 0
  m_CorrespondingSourceObject: {fileID: 0}
  m_PrefabInstance: {fileID: 0}
  m_PrefabAsset: {fileID: 0}
  m_GameObject: {fileID: 0}
  m_Enabled: 1
  m_EditorHideFlags: 0
  m_Script: {fileID: 11500000, guid: eee1e79add992f34498d040938be07ff, type: 3}
  m_Name: Kit 1-4
  m_EditorClassIdentifier: 
  EnemyBody: {fileID: 2100000, guid: b1abfc5013eb41f4da8e0b91b1ab2b80, type: 2}
  EnemyGlows1: {fileID: 2100000, guid: 6598bd7732484054fbf4a1cedf6b26b1, type: 2}
  EnemyGlows2: {fileID: 2100000, guid: 2309a901c3c98504b8d2d30b66cc3a24, type: 2}
  Shield1: {fileID: 2100000, guid: f336d034010770c4c8ea011bfbb249a8, type: 2}
  Shield2: {fileID: 2100000, guid: 04262f8d29c26684b835c80b5924caf1, type: 2}
  SmileBody: {fileID: 2100000, guid: 17eb9f8d4921eb64cbd11127eea800ea, type: 2}
  SmileFace: {fileID: 2100000, guid: e6a85f70ee85eff45bf6b01d77f390fb, type: 2}
  SmileBrows: {fileID: 2100000, guid: 285929dcde3bd7d4ab04c25ab811691b, type: 2}
  CtulhuBody: {fileID: 2100000, guid: fe0d9109567d4c7468cf2bd05e3c4b2d, type: 2}
  CtulhuIris: {fileID: 2100000, guid: 2e44c592378d5d14583c32a74ed4d084, type: 2}
  TowerRocks: {fileID: 2100000, guid: 1e90cc55ebce5374682f4a572d4ae64a, type: 2}
  TowerMain: {fileID: 2100000, guid: 192d5d4f7d4d90043aa542bdb06a8f97, type: 2}
  TowerIris: {fileID: 2100000, guid: 57616264e8e13344e9282610e92b9491, type: 2}
  CheckmateFloor: {fileID: 2100000, guid: d3a97034863e1594fa7f34f91e26a5dd, type: 2}
  BoxExternal: {fileID: 2100000, guid: 67d7a9c731f562943b7da9a8a716866d, type: 2}
  BoxMiddle: {fileID: 2100000, guid: b7c009655bcc71344ab471f7dcbfcf8d, type: 2}
  BoxInternal: {fileID: 2100000, guid: e14083bca4b2e534392c2eaefcd6d6a8, type: 2}
  CornTrunk: {fileID: 2100000, guid: 35b04ad898912994ab7cb34b2a035074, type: 2}
  CornExternal: {fileID: 2100000, guid: 1c8a27b30b3d62546baa919cb7e056f1, type: 2}
  CornMiddle: {fileID: 2100000, guid: 2ac67548277ce664b9b75bc90ce72a50, type: 2}
  CornInternal: {fileID: 2100000, guid: 711ee06b314524746a99d18ee43c41bd, type: 2}
  TreeWood: {fileID: 2100000, guid: edca7892dd122184d9acae6e95a15615, type: 2}
  TreeLeaves: {fileID: 2100000, guid: 120f22f923d20cf45b84bb2abf85e7f1, type: 2}
  Outer: {r: 0.3419811, g: 0.45596197, b: 0.5, a: 1}
  Inner: {r: 1, g: 1, b: 1, a: 1}
  OuterPassed: {r: 0.34117648, g: 0.454902, b: 0.5019608, a: 1}
  InnerPassed: {r: 0.24096651, g: 0.842244, b: 0.8962264, a: 1}
