{
  "project_info": {
    "project_number": "555991864878",
    "project_id": "ugames-pixel-punch",
    "storage_bucket": "ugames-pixel-punch.appspot.com"
  },
  "client": [
    {
      "client_info": {
        "mobilesdk_app_id": "1:555991864878:android:1df91bb07424f34e7931bf",
        "android_client_info": {
          "package_name": "com.pixel.punch"
        }
      },
      "oauth_client": [
        {
          "client_id": "555991864878-6q33eoutbqdiv3snb3uehc8hlseh4555.apps.googleusercontent.com",
          "client_type": 3
        }
      ],
      "api_key": [
        {
          "current_key": "AIzaSyCpga3_yopMHjqixOX5A6gQ-VXkMXSnXAw"
        }
      ],
      "services": {
        "appinvite_service": {
          "other_platform_oauth_client": [
            {
              "client_id": "555991864878-6q33eoutbqdiv3snb3uehc8hlseh4555.apps.googleusercontent.com",
              "client_type": 3
            }
          ]
        }
      }
    }
  ],
  "configuration_version": "1"
}